{
   "id":15549,
   "accountId":23,
   "originRouteId":null,
   "orderId":null,
   "orderType":"TRUNK",
   "orderTypeStr":"trunk",
   "routeNo":"R002300014664",
   "routeStatus":"NO_DISPATCHED",
   "jobStatus":"JOB_PLANNED",
   "routeStatusList":null,
   "routeStatusStr":"no_dispatched",
   "routeQty":1,
   "locationQty":2,
   "origin":"หาดใหญ่",
   "originProvince":"สงขลา",
   "originDistrict":"หาดใหญ่",
   "originatingSiteId":27446,
   "originatingSiteName":"Site automate-REG2606220364802gWVvf",
   "destinationProvince":"กรุงเทพมหานคร",
   "destinationDistrict":"นวมินทร์",
   "destinationSiteId":27447,
   "destinationSiteName":"Site automate-REG2606220364802zUyoC",
   "destination":"บึงกุ่ม",
   "volume":1,
   "weight":11,
   "packingQty":5,
   "goodsDescription":"",
   "goodsTypeName":"abctest",
   "carloadQuotation":1,
   "vehicleTypeNo":"VTH1",
   "vehicleTypeName":"4 ล้อ",
   "actualVehicleTypeNo":null,
   "actualVehicleTypeName":null,
   "temperatureControlNo":"Chill",
   "temperatureControlName":"Chill",
   "upperLimit":6,
   "lowerLimit":1,
   "temperatureRange":"1.0℃ ~ 6.0℃",
   "inBatches":0,
   "independent":null,
   "light":1,
   "projectId":569,
   "partnerId":12034,
   "partnerAccountId":null,
   "estimatedMileage":984.1,
   "creatorId":667,
   "creatorName":"Hana",
   "createdDt":"2023-05-26 10:01:26",
   "editorId":667,
   "editorName":"Hana",
   "editedDt":"2023-05-26 10:01:26",
   "earliestBeginTime":"2023-05-26 09:01:23",
   "latestBeginTime":"2023-05-26 09:01:23",
   "earliestEndTime":"2023-05-26 09:31:23",
   "latestEndTime":"2023-05-26 09:31:23",
   "comments":null,
   "fullLoadRatio":null,
   "minLatestBeginTime":null,
   "maxLatestBeginTime":null,
   "fromLatestEndTime":null,
   "toLatestEndTime":null,
   "minBeginTime":null,
   "maxBeginTime":null,
   "minLatestEndTime":null,
   "maxLatestEndTime":null,
   "beginTime":null,
   "endTime":null,
   "minDispatchingDt":null,
   "maxDispatchingDt":null,
   "dispatchingDt":null,
   "dispatcherId":null,
   "dispatcherName":null,
   "paperStyle":null,
   "receiptQty":0,
   "goodsValue":0,
   "goodsTypeId":155,
   "downstreamOrderNo":null,
   "exceptionQty":null,
   "warningTimes":null,
   "routeSource":"MANUAL",
   "partnerName":"REG8972570079528",
   "vendorSapCode":null,
   "routeStatusLabel":null,
   "orderTypeLabel":null,
   "carloadQuotationLabel":null,
   "inBatchesLabel":null,
   "lightLabel":null,
   "projectName":"AWTDFprod_auto",
   "noCreated":null,
   "track":"notrack",
   "executeStatus":null,
   "orderBillingCost":null,
   "routeNoFull":null,
   "routeName":"【หาดใหญ่-บึงกุ่ม】Site automate-REG2606220364802gWVvf>>Site automate-REG2606220364802zUyoC",
   "planBeginDt":"09:01",
   "planEndDt":"25:59",
   "planAirDrivingRate":0.72,
   "planEstimatedTime":61080,
   "planPunctuality":1,
   "planCostValue":null,
   "planNo":null,
   "planFullLoadRatio":0.09,
   "planTonKm":32.5,
   "fixFlag":null,
   "fixedLineCode":null,
   "freightFlag":null,
   "senderAddress":null,
   "receiveCity":null,
   "assignVehicleTypeText":null,
   "paidByVehicleTypeText":null,
   "paidByVehicleType":null,
   "isSameAsRequested":null,
   "reason":null,
   "businessUnitName":null,
   "businessUnitList":null,
   "partnerType":"0",
   "totalCharging":null,
   "billingId":32356,
   "billingStatus":"NO_CHARGED",
   "capacityDriver":null,
   "capacityMobile":null,
   "capacityPlateNo":null,
   "goodsTypeIcon":null,
   "pid":14664,
   "driver":null,
   "mobile":null,
   "plateNo":null,
   "identification":null,
   "billServiceItemsList":[
      
   ],
   "routeId":14664,
   "selectType":"CARRIER",
   "sysMixFullLoadRatio":15,
   "sysMaxFullLoadRatio":80,
   "transportOrderIds":[
      22124
   ],
   "capacityList":[
      {
         "driver":"DriverAFekc Test",
         "mobile":"66228658871",
         "typeName":"4 ล้อ",
         "typeCode":"VTH1",
         "vehicleTemperature":null,
         "plateNo":"8VxD-6203",
         "identification":"9446819527121861",
         "trackStatus":null,
         "equipmentNo":null,
         "platformName":null,
         "temperature1":null,
         "provincialSign":"ตรัง",
         "provincialSignId":15,
         "driverId":null,
         "partnerId":12034,
         "partnerName":"REG8972570079528"
      }
   ]
}