{
    "customerId":6908,
    "siteCode":"1234",
    "siteName":"site names",
    "siteShortName":"",
    "siteTypeId":1,
    "siteSubTypeId":6,
    "additionalSubType":"",
    "address":"condo C5",
    "provinceId":55,
    "districtId":5510,
    "subDistrictId":551013,
    "postalCode":"90110",
    "lat":7.008647,
    "lng":100.474686,
    "geofencingRange":1,
    "openHours":{
       "mondayStartTime":"00:00",
       "mondayEndTime":"23:59",
       "tuesdayStartTime":"00:00",
       "tuesdayEndTime":"23:59",
       "wednesdayStartTime":"00:00",
       "wednesdayEndTime":"23:59",
       "thursdayStartTime":"00:00",
       "thursdayEndTime":"23:59",
       "fridayStartTime":"00:00",
       "fridayEndTime":"23:59",
       "saturdayStartTime":"00:00",
       "saturdayEndTime":"23:59",
       "sundayStartTime":"00:00",
       "sundayEndTime":"23:59"
    },
    "specialDayOn":[
       
    ],
    "specialDayOff":[
       
    ],
    "status":{
       "id":null,
       "status":1,
       "startDate":"2023-03-31 16:49",
       "endDate":null
    },
    "keyContactVos":[
       {
          "keyContactTitle":"Mrs",
          "keyContactFirstName":"ชื่อจริง",
          "keyContactLastName":"นามสกุล",
          "keyContactEmail":"",
          "keyContactMobileCountryCode":66,
          "keyContactPhoneNumber":"812326533",
          "keyContactLandlineCountryCode":66,
          "keyContactLandlineNumber":"",
          "keyContactLandlineExtension":""
       }
    ]
 }